DECA SPRING - ELEC40006 Testing On Simple MU0/simulation/qsim/MU0a.msim.vcd
$comment
	File created using the following command:
		vcd file MU0a.msim.vcd -direction
$end
$date
	Fri Jun 05 15:25:32 2020
$end
$version
	ModelSim Version 10.5b
$end
$timescale
	1ps
$end

$scope module FBCV_Testing_V1_vlg_vec_tst $end
$var reg 1 ! CLOCK $end
$var reg 16 " FBCV_IR_PRIME_16_BITS [15:0] $end
$var wire 1 # EXEC1 $end
$var wire 1 $ EXEC2 $end
$var wire 1 % FBCV_REG_EN $end
$var wire 1 & FETCH $end
$var wire 1 ' MUX_LS [15] $end
$var wire 1 ( MUX_LS [14] $end
$var wire 1 ) MUX_LS [13] $end
$var wire 1 * MUX_LS [12] $end
$var wire 1 + MUX_LS [11] $end
$var wire 1 , MUX_LS [10] $end
$var wire 1 - MUX_LS [9] $end
$var wire 1 . MUX_LS [8] $end
$var wire 1 / MUX_LS [7] $end
$var wire 1 0 MUX_LS [6] $end
$var wire 1 1 MUX_LS [5] $end
$var wire 1 2 MUX_LS [4] $end
$var wire 1 3 MUX_LS [3] $end
$var wire 1 4 MUX_LS [2] $end
$var wire 1 5 MUX_LS [1] $end
$var wire 1 6 MUX_LS [0] $end
$var wire 1 7 MUX_LS_SELECT $end
$var wire 1 8 MUX_RS [15] $end
$var wire 1 9 MUX_RS [14] $end
$var wire 1 : MUX_RS [13] $end
$var wire 1 ; MUX_RS [12] $end
$var wire 1 < MUX_RS [11] $end
$var wire 1 = MUX_RS [10] $end
$var wire 1 > MUX_RS [9] $end
$var wire 1 ? MUX_RS [8] $end
$var wire 1 @ MUX_RS [7] $end
$var wire 1 A MUX_RS [6] $end
$var wire 1 B MUX_RS [5] $end
$var wire 1 C MUX_RS [4] $end
$var wire 1 D MUX_RS [3] $end
$var wire 1 E MUX_RS [2] $end
$var wire 1 F MUX_RS [1] $end
$var wire 1 G MUX_RS [0] $end
$var wire 1 H MUX_RS_SELECT $end
$var wire 1 I PC_OUT [11] $end
$var wire 1 J PC_OUT [10] $end
$var wire 1 K PC_OUT [9] $end
$var wire 1 L PC_OUT [8] $end
$var wire 1 M PC_OUT [7] $end
$var wire 1 N PC_OUT [6] $end
$var wire 1 O PC_OUT [5] $end
$var wire 1 P PC_OUT [4] $end
$var wire 1 Q PC_OUT [3] $end
$var wire 1 R PC_OUT [2] $end
$var wire 1 S PC_OUT [1] $end
$var wire 1 T PC_OUT [0] $end
$var wire 1 U RESULT [15] $end
$var wire 1 V RESULT [14] $end
$var wire 1 W RESULT [13] $end
$var wire 1 X RESULT [12] $end
$var wire 1 Y RESULT [11] $end
$var wire 1 Z RESULT [10] $end
$var wire 1 [ RESULT [9] $end
$var wire 1 \ RESULT [8] $end
$var wire 1 ] RESULT [7] $end
$var wire 1 ^ RESULT [6] $end
$var wire 1 _ RESULT [5] $end
$var wire 1 ` RESULT [4] $end
$var wire 1 a RESULT [3] $end
$var wire 1 b RESULT [2] $end
$var wire 1 c RESULT [1] $end
$var wire 1 d RESULT [0] $end
$var wire 1 e SUM_RESULT [15] $end
$var wire 1 f SUM_RESULT [14] $end
$var wire 1 g SUM_RESULT [13] $end
$var wire 1 h SUM_RESULT [12] $end
$var wire 1 i SUM_RESULT [11] $end
$var wire 1 j SUM_RESULT [10] $end
$var wire 1 k SUM_RESULT [9] $end
$var wire 1 l SUM_RESULT [8] $end
$var wire 1 m SUM_RESULT [7] $end
$var wire 1 n SUM_RESULT [6] $end
$var wire 1 o SUM_RESULT [5] $end
$var wire 1 p SUM_RESULT [4] $end
$var wire 1 q SUM_RESULT [3] $end
$var wire 1 r SUM_RESULT [2] $end
$var wire 1 s SUM_RESULT [1] $end
$var wire 1 t SUM_RESULT [0] $end

$scope module i1 $end
$var wire 1 u gnd $end
$var wire 1 v vcc $end
$var wire 1 w unknown $end
$var tri1 1 x devclrn $end
$var tri1 1 y devpor $end
$var tri1 1 z devoe $end
$var wire 1 { FBCV_IR_PRIME_16_BITS[15]~input_o $end
$var wire 1 | FBCV_IR_PRIME_16_BITS[14]~input_o $end
$var wire 1 } FBCV_IR_PRIME_16_BITS[13]~input_o $end
$var wire 1 ~ FBCV_IR_PRIME_16_BITS[12]~input_o $end
$var wire 1 !! CLOCK~input_o $end
$var wire 1 "! FBCV_IR_PRIME_16_BITS[8]~input_o $end
$var wire 1 #! FBCV_IR_PRIME_16_BITS[9]~input_o $end
$var wire 1 $! FBCV_IR_PRIME_16_BITS[10]~input_o $end
$var wire 1 %! FBCV_IR_PRIME_16_BITS[11]~input_o $end
$var wire 1 &! inst8|inst1|Equal0~0_combout $end
$var wire 1 '! FBCV_IR_PRIME_16_BITS[4]~input_o $end
$var wire 1 (! FBCV_IR_PRIME_16_BITS[5]~input_o $end
$var wire 1 )! FBCV_IR_PRIME_16_BITS[6]~input_o $end
$var wire 1 *! FBCV_IR_PRIME_16_BITS[7]~input_o $end
$var wire 1 +! inst8|inst1|Equal0~1_combout $end
$var wire 1 ,! FBCV_IR_PRIME_16_BITS[1]~input_o $end
$var wire 1 -! FBCV_IR_PRIME_16_BITS[2]~input_o $end
$var wire 1 .! FBCV_IR_PRIME_16_BITS[3]~input_o $end
$var wire 1 /! inst8|inst1|Equal0~2_combout $end
$var wire 1 0! inst8|inst1|Equal0~3_combout $end
$var wire 1 1! FBCV_IR_PRIME_16_BITS[0]~input_o $end
$var wire 1 2! inst8|PC|auto_generated|counter_comb_bita0~combout $end
$var wire 1 3! ~GND~combout $end
$var wire 1 4! inst8|PC|auto_generated|counter_comb_bita0~COUT $end
$var wire 1 5! inst8|PC|auto_generated|counter_comb_bita1~combout $end
$var wire 1 6! inst8|inst1|FBCV_RAM_Addr_A[1]~0_combout $end
$var wire 1 7! inst8|inst1|Equal2~0_combout $end
$var wire 1 8! inst8|PC|auto_generated|counter_comb_bita1~COUT $end
$var wire 1 9! inst8|PC|auto_generated|counter_comb_bita2~combout $end
$var wire 1 :! inst8|PC|auto_generated|counter_comb_bita2~COUT $end
$var wire 1 ;! inst8|PC|auto_generated|counter_comb_bita3~combout $end
$var wire 1 <! inst8|inst1|FBCV_RAM_Addr_A[1]~1 $end
$var wire 1 =! inst8|inst1|FBCV_RAM_Addr_A[2]~3 $end
$var wire 1 >! inst8|inst1|FBCV_RAM_Addr_A[3]~4_combout $end
$var wire 1 ?! inst8|inst1|FBCV_RAM_Addr_A[2]~2_combout $end
$var wire 1 @! inst8|inst1|Equal2~1_combout $end
$var wire 1 A! inst8|PC|auto_generated|counter_comb_bita3~COUT $end
$var wire 1 B! inst8|PC|auto_generated|counter_comb_bita4~combout $end
$var wire 1 C! inst8|PC|auto_generated|counter_comb_bita4~COUT $end
$var wire 1 D! inst8|PC|auto_generated|counter_comb_bita5~combout $end
$var wire 1 E! inst8|inst1|FBCV_RAM_Addr_A[3]~5 $end
$var wire 1 F! inst8|inst1|FBCV_RAM_Addr_A[4]~7 $end
$var wire 1 G! inst8|inst1|FBCV_RAM_Addr_A[5]~8_combout $end
$var wire 1 H! inst8|inst1|FBCV_RAM_Addr_A[4]~6_combout $end
$var wire 1 I! inst8|inst1|Equal2~2_combout $end
$var wire 1 J! inst8|PC|auto_generated|counter_comb_bita5~COUT $end
$var wire 1 K! inst8|PC|auto_generated|counter_comb_bita6~combout $end
$var wire 1 L! inst8|PC|auto_generated|counter_comb_bita6~COUT $end
$var wire 1 M! inst8|PC|auto_generated|counter_comb_bita7~combout $end
$var wire 1 N! inst8|inst1|FBCV_RAM_Addr_A[5]~9 $end
$var wire 1 O! inst8|inst1|FBCV_RAM_Addr_A[6]~11 $end
$var wire 1 P! inst8|inst1|FBCV_RAM_Addr_A[7]~12_combout $end
$var wire 1 Q! inst8|inst1|FBCV_RAM_Addr_A[6]~10_combout $end
$var wire 1 R! inst8|inst1|Equal2~3_combout $end
$var wire 1 S! inst8|inst1|Equal2~4_combout $end
$var wire 1 T! inst8|PC|auto_generated|counter_comb_bita7~COUT $end
$var wire 1 U! inst8|PC|auto_generated|counter_comb_bita8~combout $end
$var wire 1 V! inst8|PC|auto_generated|counter_comb_bita8~COUT $end
$var wire 1 W! inst8|PC|auto_generated|counter_comb_bita9~combout $end
$var wire 1 X! inst8|inst1|FBCV_RAM_Addr_A[7]~13 $end
$var wire 1 Y! inst8|inst1|FBCV_RAM_Addr_A[8]~15 $end
$var wire 1 Z! inst8|inst1|FBCV_RAM_Addr_A[9]~16_combout $end
$var wire 1 [! inst8|inst1|FBCV_RAM_Addr_A[8]~14_combout $end
$var wire 1 \! inst8|inst1|Equal2~5_combout $end
$var wire 1 ]! inst8|PC|auto_generated|counter_comb_bita9~COUT $end
$var wire 1 ^! inst8|PC|auto_generated|counter_comb_bita10~combout $end
$var wire 1 _! inst8|PC|auto_generated|counter_comb_bita10~COUT $end
$var wire 1 `! inst8|PC|auto_generated|counter_comb_bita11~combout $end
$var wire 1 a! inst8|inst1|FBCV_RAM_Addr_A[9]~17 $end
$var wire 1 b! inst8|inst1|FBCV_RAM_Addr_A[10]~19 $end
$var wire 1 c! inst8|inst1|FBCV_RAM_Addr_A[11]~20_combout $end
$var wire 1 d! inst8|inst1|FBCV_RAM_Addr_A[10]~18_combout $end
$var wire 1 e! inst8|inst1|Equal2~6_combout $end
$var wire 1 f! inst8|inst1|Equal2~7_combout $end
$var wire 1 g! inst2|inst2|inst3~0_combout $end
$var wire 1 h! inst2|inst2|inst3~q $end
$var wire 1 i! inst2|inst3|out[1]~0_combout $end
$var wire 1 j! inst2|inst3|out[1]~1_combout $end
$var wire 1 k! inst2|inst2|inst2~q $end
$var wire 1 l! inst8|inst1|comb~0_combout $end
$var wire 1 m! inst8|inst1|comb~1_combout $end
$var wire 1 n! inst8|inst1|Equal3~0_combout $end
$var wire 1 o! inst8|inst1|Equal3~1_combout $end
$var wire 1 p! inst8|inst1|Equal3~2_combout $end
$var wire 1 q! inst8|inst1|Equal3~3_combout $end
$var wire 1 r! inst8|inst1|Equal4~0_combout $end
$var wire 1 s! inst8|inst1|Equal4~1_combout $end
$var wire 1 t! inst8|inst1|Equal4~2_combout $end
$var wire 1 u! inst8|inst1|Equal4~3_combout $end
$var wire 1 v! inst8|inst1|FBCV_RAM_Addr_B[0]~0_combout $end
$var wire 1 w! inst8|inst1|FBCV_RAM_Addr_B[0]~1 $end
$var wire 1 x! inst8|inst1|FBCV_RAM_Addr_B[1]~2_combout $end
$var wire 1 y! inst8|inst1|FBCV_RAM_Addr_B[1]~3 $end
$var wire 1 z! inst8|inst1|FBCV_RAM_Addr_B[2]~4_combout $end
$var wire 1 {! inst8|inst1|FBCV_RAM_Addr_B[2]~5 $end
$var wire 1 |! inst8|inst1|FBCV_RAM_Addr_B[3]~6_combout $end
$var wire 1 }! inst8|inst1|FBCV_RAM_Addr_B[3]~7 $end
$var wire 1 ~! inst8|inst1|FBCV_RAM_Addr_B[4]~8_combout $end
$var wire 1 !" inst8|inst1|FBCV_RAM_Addr_B[4]~9 $end
$var wire 1 "" inst8|inst1|FBCV_RAM_Addr_B[5]~10_combout $end
$var wire 1 #" inst8|inst1|FBCV_RAM_Addr_B[5]~11 $end
$var wire 1 $" inst8|inst1|FBCV_RAM_Addr_B[6]~12_combout $end
$var wire 1 %" inst8|inst1|FBCV_RAM_Addr_B[6]~13 $end
$var wire 1 &" inst8|inst1|FBCV_RAM_Addr_B[7]~14_combout $end
$var wire 1 '" inst8|inst1|FBCV_RAM_Addr_B[7]~15 $end
$var wire 1 (" inst8|inst1|FBCV_RAM_Addr_B[8]~16_combout $end
$var wire 1 )" inst8|inst1|FBCV_RAM_Addr_B[8]~17 $end
$var wire 1 *" inst8|inst1|FBCV_RAM_Addr_B[9]~18_combout $end
$var wire 1 +" inst8|inst1|FBCV_RAM_Addr_B[9]~19 $end
$var wire 1 ," inst8|inst1|FBCV_RAM_Addr_B[10]~20_combout $end
$var wire 1 -" inst8|inst1|FBCV_RAM_Addr_B[10]~21 $end
$var wire 1 ." inst8|inst1|FBCV_RAM_Addr_B[11]~22_combout $end
$var wire 1 /" inst8|MUX_RS|$00000|auto_generated|result_node[15]~0_combout $end
$var wire 1 0" inst8|MUX_LS|$00000|auto_generated|result_node[14]~1_combout $end
$var wire 1 1" inst8|MUX_LS|$00000|auto_generated|result_node[13]~2_combout $end
$var wire 1 2" inst8|MUX_LS|$00000|auto_generated|result_node[12]~3_combout $end
$var wire 1 3" inst8|MUX_LS|$00000|auto_generated|result_node[11]~4_combout $end
$var wire 1 4" inst8|MUX_LS|$00000|auto_generated|result_node[10]~5_combout $end
$var wire 1 5" inst8|MUX_LS|$00000|auto_generated|result_node[9]~6_combout $end
$var wire 1 6" inst8|MUX_LS|$00000|auto_generated|result_node[8]~7_combout $end
$var wire 1 7" inst8|MUX_LS|$00000|auto_generated|result_node[7]~8_combout $end
$var wire 1 8" inst8|MUX_LS|$00000|auto_generated|result_node[6]~9_combout $end
$var wire 1 9" inst8|MUX_LS|$00000|auto_generated|result_node[5]~10_combout $end
$var wire 1 :" inst8|MUX_LS|$00000|auto_generated|result_node[4]~11_combout $end
$var wire 1 ;" inst8|MUX_LS|$00000|auto_generated|result_node[3]~12_combout $end
$var wire 1 <" inst8|MUX_LS|$00000|auto_generated|result_node[2]~13_combout $end
$var wire 1 =" inst8|MUX_LS|$00000|auto_generated|result_node[1]~14_combout $end
$var wire 1 >" inst8|ALU|auto_generated|result[0]~0_combout $end
$var wire 1 ?" inst8|ALU|auto_generated|result[0]~1 $end
$var wire 1 @" inst8|ALU|auto_generated|result[1]~2_combout $end
$var wire 1 A" inst8|MUX_RS|$00000|auto_generated|result_node[1]~14_combout $end
$var wire 1 B" inst8|ALU|auto_generated|result[1]~3 $end
$var wire 1 C" inst8|ALU|auto_generated|result[2]~4_combout $end
$var wire 1 D" inst8|MUX_RS|$00000|auto_generated|result_node[2]~13_combout $end
$var wire 1 E" inst8|ALU|auto_generated|result[2]~5 $end
$var wire 1 F" inst8|ALU|auto_generated|result[3]~6_combout $end
$var wire 1 G" inst8|MUX_RS|$00000|auto_generated|result_node[3]~12_combout $end
$var wire 1 H" inst8|ALU|auto_generated|result[3]~7 $end
$var wire 1 I" inst8|ALU|auto_generated|result[4]~8_combout $end
$var wire 1 J" inst8|MUX_RS|$00000|auto_generated|result_node[4]~11_combout $end
$var wire 1 K" inst8|ALU|auto_generated|result[4]~9 $end
$var wire 1 L" inst8|ALU|auto_generated|result[5]~10_combout $end
$var wire 1 M" inst8|MUX_RS|$00000|auto_generated|result_node[5]~10_combout $end
$var wire 1 N" inst8|ALU|auto_generated|result[5]~11 $end
$var wire 1 O" inst8|ALU|auto_generated|result[6]~12_combout $end
$var wire 1 P" inst8|MUX_RS|$00000|auto_generated|result_node[6]~9_combout $end
$var wire 1 Q" inst8|ALU|auto_generated|result[6]~13 $end
$var wire 1 R" inst8|ALU|auto_generated|result[7]~14_combout $end
$var wire 1 S" inst8|MUX_RS|$00000|auto_generated|result_node[7]~8_combout $end
$var wire 1 T" inst8|ALU|auto_generated|result[7]~15 $end
$var wire 1 U" inst8|ALU|auto_generated|result[8]~16_combout $end
$var wire 1 V" inst8|MUX_RS|$00000|auto_generated|result_node[8]~7_combout $end
$var wire 1 W" inst8|ALU|auto_generated|result[8]~17 $end
$var wire 1 X" inst8|ALU|auto_generated|result[9]~18_combout $end
$var wire 1 Y" inst8|MUX_RS|$00000|auto_generated|result_node[9]~6_combout $end
$var wire 1 Z" inst8|ALU|auto_generated|result[9]~19 $end
$var wire 1 [" inst8|ALU|auto_generated|result[10]~20_combout $end
$var wire 1 \" inst8|MUX_RS|$00000|auto_generated|result_node[10]~5_combout $end
$var wire 1 ]" inst8|ALU|auto_generated|result[10]~21 $end
$var wire 1 ^" inst8|ALU|auto_generated|result[11]~22_combout $end
$var wire 1 _" inst8|MUX_RS|$00000|auto_generated|result_node[11]~4_combout $end
$var wire 1 `" inst8|ALU|auto_generated|result[11]~23 $end
$var wire 1 a" inst8|ALU|auto_generated|result[12]~24_combout $end
$var wire 1 b" inst8|MUX_RS|$00000|auto_generated|result_node[12]~3_combout $end
$var wire 1 c" inst8|ALU|auto_generated|result[12]~25 $end
$var wire 1 d" inst8|ALU|auto_generated|result[13]~26_combout $end
$var wire 1 e" inst8|MUX_RS|$00000|auto_generated|result_node[13]~2_combout $end
$var wire 1 f" inst8|ALU|auto_generated|result[13]~27 $end
$var wire 1 g" inst8|ALU|auto_generated|result[14]~28_combout $end
$var wire 1 h" inst8|MUX_RS|$00000|auto_generated|result_node[14]~1_combout $end
$var wire 1 i" inst8|ALU|auto_generated|result[14]~29 $end
$var wire 1 j" inst8|ALU|auto_generated|result[15]~30_combout $end
$var wire 1 k" inst8|MUX_LS|$00000|auto_generated|result_node[15]~0_combout $end
$var wire 1 l" inst8|inst1|FBCV_Reg[15]~0_combout $end
$var wire 1 m" inst8|inst1|FBCV_Reg[15]~1_combout $end
$var wire 1 n" inst8|inst1|FBCV_Reg[14]~2_combout $end
$var wire 1 o" inst8|inst1|FBCV_Reg[13]~3_combout $end
$var wire 1 p" inst8|inst1|FBCV_Reg[12]~4_combout $end
$var wire 1 q" inst8|inst1|FBCV_Reg[11]~5_combout $end
$var wire 1 r" inst8|inst1|FBCV_Reg[10]~6_combout $end
$var wire 1 s" inst8|inst1|FBCV_Reg[9]~7_combout $end
$var wire 1 t" inst8|inst1|FBCV_Reg[8]~8_combout $end
$var wire 1 u" inst8|inst1|FBCV_Reg[7]~9_combout $end
$var wire 1 v" inst8|inst1|FBCV_Reg[6]~10_combout $end
$var wire 1 w" inst8|inst1|FBCV_Reg[5]~11_combout $end
$var wire 1 x" inst8|inst1|FBCV_Reg[4]~12_combout $end
$var wire 1 y" inst8|inst1|FBCV_Reg[3]~13_combout $end
$var wire 1 z" inst8|inst1|FBCV_Reg[2]~14_combout $end
$var wire 1 {" inst8|inst1|FBCV_Reg[1]~15_combout $end
$var wire 1 |" inst8|inst1|FBCV_Reg[0]~16_combout $end
$var wire 1 }" inst8|MUX_LS|$00000|auto_generated|result_node [15] $end
$var wire 1 ~" inst8|MUX_LS|$00000|auto_generated|result_node [14] $end
$var wire 1 !# inst8|MUX_LS|$00000|auto_generated|result_node [13] $end
$var wire 1 "# inst8|MUX_LS|$00000|auto_generated|result_node [12] $end
$var wire 1 ## inst8|MUX_LS|$00000|auto_generated|result_node [11] $end
$var wire 1 $# inst8|MUX_LS|$00000|auto_generated|result_node [10] $end
$var wire 1 %# inst8|MUX_LS|$00000|auto_generated|result_node [9] $end
$var wire 1 &# inst8|MUX_LS|$00000|auto_generated|result_node [8] $end
$var wire 1 '# inst8|MUX_LS|$00000|auto_generated|result_node [7] $end
$var wire 1 (# inst8|MUX_LS|$00000|auto_generated|result_node [6] $end
$var wire 1 )# inst8|MUX_LS|$00000|auto_generated|result_node [5] $end
$var wire 1 *# inst8|MUX_LS|$00000|auto_generated|result_node [4] $end
$var wire 1 +# inst8|MUX_LS|$00000|auto_generated|result_node [3] $end
$var wire 1 ,# inst8|MUX_LS|$00000|auto_generated|result_node [2] $end
$var wire 1 -# inst8|MUX_LS|$00000|auto_generated|result_node [1] $end
$var wire 1 .# inst8|MUX_LS|$00000|auto_generated|result_node [0] $end
$var wire 1 /# inst8|PC|auto_generated|counter_reg_bit [11] $end
$var wire 1 0# inst8|PC|auto_generated|counter_reg_bit [10] $end
$var wire 1 1# inst8|PC|auto_generated|counter_reg_bit [9] $end
$var wire 1 2# inst8|PC|auto_generated|counter_reg_bit [8] $end
$var wire 1 3# inst8|PC|auto_generated|counter_reg_bit [7] $end
$var wire 1 4# inst8|PC|auto_generated|counter_reg_bit [6] $end
$var wire 1 5# inst8|PC|auto_generated|counter_reg_bit [5] $end
$var wire 1 6# inst8|PC|auto_generated|counter_reg_bit [4] $end
$var wire 1 7# inst8|PC|auto_generated|counter_reg_bit [3] $end
$var wire 1 8# inst8|PC|auto_generated|counter_reg_bit [2] $end
$var wire 1 9# inst8|PC|auto_generated|counter_reg_bit [1] $end
$var wire 1 :# inst8|PC|auto_generated|counter_reg_bit [0] $end
$var wire 1 ;# inst8|PREV_SUM|dffs [15] $end
$var wire 1 <# inst8|PREV_SUM|dffs [14] $end
$var wire 1 =# inst8|PREV_SUM|dffs [13] $end
$var wire 1 ># inst8|PREV_SUM|dffs [12] $end
$var wire 1 ?# inst8|PREV_SUM|dffs [11] $end
$var wire 1 @# inst8|PREV_SUM|dffs [10] $end
$var wire 1 A# inst8|PREV_SUM|dffs [9] $end
$var wire 1 B# inst8|PREV_SUM|dffs [8] $end
$var wire 1 C# inst8|PREV_SUM|dffs [7] $end
$var wire 1 D# inst8|PREV_SUM|dffs [6] $end
$var wire 1 E# inst8|PREV_SUM|dffs [5] $end
$var wire 1 F# inst8|PREV_SUM|dffs [4] $end
$var wire 1 G# inst8|PREV_SUM|dffs [3] $end
$var wire 1 H# inst8|PREV_SUM|dffs [2] $end
$var wire 1 I# inst8|PREV_SUM|dffs [1] $end
$var wire 1 J# inst8|PREV_SUM|dffs [0] $end
$var wire 1 K# inst8|inst|altsyncram_component|auto_generated|q_b [15] $end
$var wire 1 L# inst8|inst|altsyncram_component|auto_generated|q_b [14] $end
$var wire 1 M# inst8|inst|altsyncram_component|auto_generated|q_b [13] $end
$var wire 1 N# inst8|inst|altsyncram_component|auto_generated|q_b [12] $end
$var wire 1 O# inst8|inst|altsyncram_component|auto_generated|q_b [11] $end
$var wire 1 P# inst8|inst|altsyncram_component|auto_generated|q_b [10] $end
$var wire 1 Q# inst8|inst|altsyncram_component|auto_generated|q_b [9] $end
$var wire 1 R# inst8|inst|altsyncram_component|auto_generated|q_b [8] $end
$var wire 1 S# inst8|inst|altsyncram_component|auto_generated|q_b [7] $end
$var wire 1 T# inst8|inst|altsyncram_component|auto_generated|q_b [6] $end
$var wire 1 U# inst8|inst|altsyncram_component|auto_generated|q_b [5] $end
$var wire 1 V# inst8|inst|altsyncram_component|auto_generated|q_b [4] $end
$var wire 1 W# inst8|inst|altsyncram_component|auto_generated|q_b [3] $end
$var wire 1 X# inst8|inst|altsyncram_component|auto_generated|q_b [2] $end
$var wire 1 Y# inst8|inst|altsyncram_component|auto_generated|q_b [1] $end
$var wire 1 Z# inst8|inst|altsyncram_component|auto_generated|q_b [0] $end
$var wire 1 [# inst8|MUX_RS|$00000|auto_generated|result_node [15] $end
$var wire 1 \# inst8|MUX_RS|$00000|auto_generated|result_node [14] $end
$var wire 1 ]# inst8|MUX_RS|$00000|auto_generated|result_node [13] $end
$var wire 1 ^# inst8|MUX_RS|$00000|auto_generated|result_node [12] $end
$var wire 1 _# inst8|MUX_RS|$00000|auto_generated|result_node [11] $end
$var wire 1 `# inst8|MUX_RS|$00000|auto_generated|result_node [10] $end
$var wire 1 a# inst8|MUX_RS|$00000|auto_generated|result_node [9] $end
$var wire 1 b# inst8|MUX_RS|$00000|auto_generated|result_node [8] $end
$var wire 1 c# inst8|MUX_RS|$00000|auto_generated|result_node [7] $end
$var wire 1 d# inst8|MUX_RS|$00000|auto_generated|result_node [6] $end
$var wire 1 e# inst8|MUX_RS|$00000|auto_generated|result_node [5] $end
$var wire 1 f# inst8|MUX_RS|$00000|auto_generated|result_node [4] $end
$var wire 1 g# inst8|MUX_RS|$00000|auto_generated|result_node [3] $end
$var wire 1 h# inst8|MUX_RS|$00000|auto_generated|result_node [2] $end
$var wire 1 i# inst8|MUX_RS|$00000|auto_generated|result_node [1] $end
$var wire 1 j# inst8|MUX_RS|$00000|auto_generated|result_node [0] $end
$var wire 1 k# inst8|inst|altsyncram_component|auto_generated|ram_block1a15_PORTBDATAOUT_bus [0] $end
$var wire 1 l# inst8|inst|altsyncram_component|auto_generated|ram_block1a14_PORTBDATAOUT_bus [0] $end
$var wire 1 m# inst8|inst|altsyncram_component|auto_generated|ram_block1a13_PORTBDATAOUT_bus [0] $end
$var wire 1 n# inst8|inst|altsyncram_component|auto_generated|ram_block1a12_PORTBDATAOUT_bus [0] $end
$var wire 1 o# inst8|inst|altsyncram_component|auto_generated|ram_block1a11_PORTBDATAOUT_bus [0] $end
$var wire 1 p# inst8|inst|altsyncram_component|auto_generated|ram_block1a10_PORTBDATAOUT_bus [0] $end
$var wire 1 q# inst8|inst|altsyncram_component|auto_generated|ram_block1a9_PORTBDATAOUT_bus [0] $end
$var wire 1 r# inst8|inst|altsyncram_component|auto_generated|ram_block1a8_PORTBDATAOUT_bus [0] $end
$var wire 1 s# inst8|inst|altsyncram_component|auto_generated|ram_block1a7_PORTBDATAOUT_bus [0] $end
$var wire 1 t# inst8|inst|altsyncram_component|auto_generated|ram_block1a6_PORTBDATAOUT_bus [0] $end
$var wire 1 u# inst8|inst|altsyncram_component|auto_generated|ram_block1a5_PORTBDATAOUT_bus [0] $end
$var wire 1 v# inst8|inst|altsyncram_component|auto_generated|ram_block1a4_PORTBDATAOUT_bus [0] $end
$var wire 1 w# inst8|inst|altsyncram_component|auto_generated|ram_block1a3_PORTBDATAOUT_bus [0] $end
$var wire 1 x# inst8|inst|altsyncram_component|auto_generated|ram_block1a2_PORTBDATAOUT_bus [0] $end
$var wire 1 y# inst8|inst|altsyncram_component|auto_generated|ram_block1a1_PORTBDATAOUT_bus [0] $end
$var wire 1 z# inst8|inst|altsyncram_component|auto_generated|ram_block1a0_PORTBDATAOUT_bus [0] $end
$upscope $end
$upscope $end
$enddefinitions $end
#0
$dumpvars
0!
b1010 "
0#
0$
0%
1&
16
05
04
03
02
01
00
0/
0.
0-
0,
0+
0*
0)
0(
0'
17
1G
0F
0E
0D
0C
0B
0A
0@
0?
0>
0=
0<
0;
0:
09
08
1H
0T
0S
0R
0Q
0P
0O
0N
0M
0L
0K
0J
0I
0d
0c
0b
0a
0`
0_
0^
0]
0\
0[
0Z
0Y
0X
0W
0V
0U
0t
1s
0r
0q
0p
0o
0n
0m
0l
0k
0j
0i
0h
0g
0f
0e
0u
1v
xw
1x
1y
1z
0{
0|
0}
0~
0!!
0"!
0#!
0$!
0%!
1&!
0'!
0(!
0)!
0*!
1+!
1,!
0-!
1.!
0/!
00!
01!
12!
03!
04!
05!
16!
17!
18!
09!
0:!
0;!
0<!
1=!
0>!
0?!
0@!
1A!
0B!
0C!
0D!
0E!
1F!
0G!
0H!
1I!
1J!
0K!
0L!
0M!
0N!
1O!
0P!
0Q!
1R!
0S!
1T!
0U!
0V!
0W!
0X!
1Y!
0Z!
0[!
1\!
1]!
0^!
0_!
0`!
0a!
1b!
0c!
0d!
0e!
1f!
1g!
0h!
0i!
0j!
0k!
0l!
0m!
1n!
1o!
1p!
1q!
1r!
1s!
1t!
1u!
1v!
0w!
0x!
1y!
0z!
0{!
0|!
1}!
0~!
0!"
0""
1#"
0$"
0%"
0&"
1'"
0("
0)"
0*"
1+"
0,"
0-"
0."
0/"
00"
01"
02"
03"
04"
05"
06"
07"
08"
09"
0:"
0;"
0<"
0="
0>"
1?"
1@"
0A"
1B"
0C"
0D"
0E"
0F"
0G"
1H"
0I"
0J"
0K"
0L"
0M"
1N"
0O"
0P"
0Q"
0R"
0S"
1T"
0U"
0V"
0W"
0X"
0Y"
1Z"
0["
0\"
0]"
0^"
0_"
1`"
0a"
0b"
0c"
0d"
0e"
1f"
0g"
0h"
0i"
0j"
0k"
1l"
0m"
0n"
0o"
0p"
0q"
0r"
0s"
0t"
0u"
0v"
0w"
0x"
0y"
0z"
0{"
0|"
1.#
z-#
z,#
z+#
z*#
z)#
z(#
z'#
z&#
z%#
z$#
z##
z"#
z!#
z~"
z}"
0:#
09#
08#
07#
06#
05#
04#
03#
02#
01#
00#
0/#
0J#
0I#
0H#
0G#
0F#
0E#
0D#
0C#
0B#
0A#
0@#
0?#
0>#
0=#
0<#
0;#
0Z#
0Y#
0X#
0W#
0V#
0U#
0T#
0S#
0R#
0Q#
0P#
0O#
0N#
0M#
0L#
0K#
1j#
zi#
zh#
zg#
zf#
ze#
zd#
zc#
zb#
za#
z`#
z_#
z^#
z]#
z\#
z[#
0k#
0l#
0m#
0n#
0o#
0p#
0q#
0r#
0s#
0t#
0u#
0v#
0w#
0x#
0y#
0z#
$end
#5000
1!
1!!
1I#
1h!
1#
1l!
1i!
0&
0g!
1j!
#10000
0!
0!!
#15000
1!
1!!
1k!
0h!
1:#
1T
0#
1$
1w!
0v!
0n!
07!
14!
02!
1x!
0.#
1="
0q!
15!
07
15
06
0?"
0B"
1>"
0@"
0s
1t
1B"
1@"
1C"
1r
1s
0C"
0r
#20000
0!
0!!
#25000
1!
1!!
1J#
19#
0:#
0T
1S
0y!
0x!
0t!
1<!
06!
08!
0w!
1v!
1n!
17!
04!
1.#
05!
12!
16
1z!
1?!
0n!
07!
1y!
1x!
18!
1?"
0j#
0u!
19!
0="
1q!
15!
0>"
0t
17
05
0H
0G
0z!
0?"
1="
0q!
09!
1>"
1t
07
15
#25001
1y#
1Y#
1A"
1F
0B"
0@"
0s
1C"
1r
#30000
0!
0!!
#35000
1!
1!!
0I#
1H#
1:#
1T
1w!
0v!
14!
0="
1<"
02!
14
05
0y!
0x!
08!
1B"
1E"
05!
1@"
0C"
0r
1s
1z!
0E"
19!
1C"
1F"
1q
1r
0F"
0q
#35001
1z#
1Z#
1j#
1G
1?"
0>"
0t
0B"
0@"
0s
1E"
0C"
0r
1F"
1q
#40000
0!
0!!
