ELEC40006 Electronics Design Projectv1/VERSION2 - DECA SPRING - ELEC40006 Testing On Simple MU0/simulation/qsim/MU0a.msim.vcd
$comment
	File created using the following command:
		vcd file MU0a.msim.vcd -direction
$end
$date
	Sat Jun 06 15:04:11 2020
$end
$version
	ModelSim Version 10.5b
$end
$timescale
	1ps
$end

$scope module FBCV_Testing_V1_vlg_vec_tst $end
$var reg 1 ! CLOCK $end
$var reg 12 " FBCV_IR_PRIME_16_BITS [11:0] $end
$var wire 1 # EXEC1 $end
$var wire 1 $ EXEC2 $end
$var wire 1 % FBCV_REG_EN $end
$var wire 1 & FETCH $end
$var wire 1 ' MUX_LS [15] $end
$var wire 1 ( MUX_LS [14] $end
$var wire 1 ) MUX_LS [13] $end
$var wire 1 * MUX_LS [12] $end
$var wire 1 + MUX_LS [11] $end
$var wire 1 , MUX_LS [10] $end
$var wire 1 - MUX_LS [9] $end
$var wire 1 . MUX_LS [8] $end
$var wire 1 / MUX_LS [7] $end
$var wire 1 0 MUX_LS [6] $end
$var wire 1 1 MUX_LS [5] $end
$var wire 1 2 MUX_LS [4] $end
$var wire 1 3 MUX_LS [3] $end
$var wire 1 4 MUX_LS [2] $end
$var wire 1 5 MUX_LS [1] $end
$var wire 1 6 MUX_LS [0] $end
$var wire 1 7 MUX_LS_SELECT $end
$var wire 1 8 MUX_RS [15] $end
$var wire 1 9 MUX_RS [14] $end
$var wire 1 : MUX_RS [13] $end
$var wire 1 ; MUX_RS [12] $end
$var wire 1 < MUX_RS [11] $end
$var wire 1 = MUX_RS [10] $end
$var wire 1 > MUX_RS [9] $end
$var wire 1 ? MUX_RS [8] $end
$var wire 1 @ MUX_RS [7] $end
$var wire 1 A MUX_RS [6] $end
$var wire 1 B MUX_RS [5] $end
$var wire 1 C MUX_RS [4] $end
$var wire 1 D MUX_RS [3] $end
$var wire 1 E MUX_RS [2] $end
$var wire 1 F MUX_RS [1] $end
$var wire 1 G MUX_RS [0] $end
$var wire 1 H MUX_RS_SELECT $end
$var wire 1 I PC_OUT [11] $end
$var wire 1 J PC_OUT [10] $end
$var wire 1 K PC_OUT [9] $end
$var wire 1 L PC_OUT [8] $end
$var wire 1 M PC_OUT [7] $end
$var wire 1 N PC_OUT [6] $end
$var wire 1 O PC_OUT [5] $end
$var wire 1 P PC_OUT [4] $end
$var wire 1 Q PC_OUT [3] $end
$var wire 1 R PC_OUT [2] $end
$var wire 1 S PC_OUT [1] $end
$var wire 1 T PC_OUT [0] $end
$var wire 1 U RESULT [15] $end
$var wire 1 V RESULT [14] $end
$var wire 1 W RESULT [13] $end
$var wire 1 X RESULT [12] $end
$var wire 1 Y RESULT [11] $end
$var wire 1 Z RESULT [10] $end
$var wire 1 [ RESULT [9] $end
$var wire 1 \ RESULT [8] $end
$var wire 1 ] RESULT [7] $end
$var wire 1 ^ RESULT [6] $end
$var wire 1 _ RESULT [5] $end
$var wire 1 ` RESULT [4] $end
$var wire 1 a RESULT [3] $end
$var wire 1 b RESULT [2] $end
$var wire 1 c RESULT [1] $end
$var wire 1 d RESULT [0] $end
$var wire 1 e SUM_RESULT [15] $end
$var wire 1 f SUM_RESULT [14] $end
$var wire 1 g SUM_RESULT [13] $end
$var wire 1 h SUM_RESULT [12] $end
$var wire 1 i SUM_RESULT [11] $end
$var wire 1 j SUM_RESULT [10] $end
$var wire 1 k SUM_RESULT [9] $end
$var wire 1 l SUM_RESULT [8] $end
$var wire 1 m SUM_RESULT [7] $end
$var wire 1 n SUM_RESULT [6] $end
$var wire 1 o SUM_RESULT [5] $end
$var wire 1 p SUM_RESULT [4] $end
$var wire 1 q SUM_RESULT [3] $end
$var wire 1 r SUM_RESULT [2] $end
$var wire 1 s SUM_RESULT [1] $end
$var wire 1 t SUM_RESULT [0] $end

$scope module i1 $end
$var wire 1 u gnd $end
$var wire 1 v vcc $end
$var wire 1 w unknown $end
$var tri1 1 x devclrn $end
$var tri1 1 y devpor $end
$var tri1 1 z devoe $end
$var wire 1 { CLOCK~input_o $end
$var wire 1 | FBCV_IR_PRIME_16_BITS[8]~input_o $end
$var wire 1 } FBCV_IR_PRIME_16_BITS[9]~input_o $end
$var wire 1 ~ FBCV_IR_PRIME_16_BITS[10]~input_o $end
$var wire 1 !! FBCV_IR_PRIME_16_BITS[11]~input_o $end
$var wire 1 "! inst|FBCV_ALU_DECODER|Equal0~0_combout $end
$var wire 1 #! FBCV_IR_PRIME_16_BITS[4]~input_o $end
$var wire 1 $! FBCV_IR_PRIME_16_BITS[5]~input_o $end
$var wire 1 %! FBCV_IR_PRIME_16_BITS[6]~input_o $end
$var wire 1 &! FBCV_IR_PRIME_16_BITS[7]~input_o $end
$var wire 1 '! inst|FBCV_ALU_DECODER|Equal0~1_combout $end
$var wire 1 (! FBCV_IR_PRIME_16_BITS[1]~input_o $end
$var wire 1 )! FBCV_IR_PRIME_16_BITS[2]~input_o $end
$var wire 1 *! FBCV_IR_PRIME_16_BITS[3]~input_o $end
$var wire 1 +! inst|FBCV_ALU_DECODER|Equal0~2_combout $end
$var wire 1 ,! inst|FBCV_ALU_DECODER|Equal0~3_combout $end
$var wire 1 -! FBCV_IR_PRIME_16_BITS[0]~input_o $end
$var wire 1 .! inst|PC|auto_generated|counter_comb_bita0~combout $end
$var wire 1 /! ~GND~combout $end
$var wire 1 0! inst|PC|auto_generated|counter_comb_bita0~COUT $end
$var wire 1 1! inst|PC|auto_generated|counter_comb_bita1~combout $end
$var wire 1 2! inst|FBCV_ALU_DECODER|FBCV_RAM_Addr_A[1]~0_combout $end
$var wire 1 3! inst|FBCV_ALU_DECODER|Equal2~0_combout $end
$var wire 1 4! inst|PC|auto_generated|counter_comb_bita1~COUT $end
$var wire 1 5! inst|PC|auto_generated|counter_comb_bita2~combout $end
$var wire 1 6! inst|PC|auto_generated|counter_comb_bita2~COUT $end
$var wire 1 7! inst|PC|auto_generated|counter_comb_bita3~combout $end
$var wire 1 8! inst|FBCV_ALU_DECODER|FBCV_RAM_Addr_A[1]~1 $end
$var wire 1 9! inst|FBCV_ALU_DECODER|FBCV_RAM_Addr_A[2]~3 $end
$var wire 1 :! inst|FBCV_ALU_DECODER|FBCV_RAM_Addr_A[3]~4_combout $end
$var wire 1 ;! inst|FBCV_ALU_DECODER|FBCV_RAM_Addr_A[2]~2_combout $end
$var wire 1 <! inst|FBCV_ALU_DECODER|Equal2~1_combout $end
$var wire 1 =! inst|PC|auto_generated|counter_comb_bita3~COUT $end
$var wire 1 >! inst|PC|auto_generated|counter_comb_bita4~combout $end
$var wire 1 ?! inst|PC|auto_generated|counter_comb_bita4~COUT $end
$var wire 1 @! inst|PC|auto_generated|counter_comb_bita5~combout $end
$var wire 1 A! inst|FBCV_ALU_DECODER|FBCV_RAM_Addr_A[3]~5 $end
$var wire 1 B! inst|FBCV_ALU_DECODER|FBCV_RAM_Addr_A[4]~7 $end
$var wire 1 C! inst|FBCV_ALU_DECODER|FBCV_RAM_Addr_A[5]~8_combout $end
$var wire 1 D! inst|FBCV_ALU_DECODER|FBCV_RAM_Addr_A[4]~6_combout $end
$var wire 1 E! inst|FBCV_ALU_DECODER|Equal2~2_combout $end
$var wire 1 F! inst|PC|auto_generated|counter_comb_bita5~COUT $end
$var wire 1 G! inst|PC|auto_generated|counter_comb_bita6~combout $end
$var wire 1 H! inst|PC|auto_generated|counter_comb_bita6~COUT $end
$var wire 1 I! inst|PC|auto_generated|counter_comb_bita7~combout $end
$var wire 1 J! inst|FBCV_ALU_DECODER|FBCV_RAM_Addr_A[5]~9 $end
$var wire 1 K! inst|FBCV_ALU_DECODER|FBCV_RAM_Addr_A[6]~11 $end
$var wire 1 L! inst|FBCV_ALU_DECODER|FBCV_RAM_Addr_A[7]~12_combout $end
$var wire 1 M! inst|FBCV_ALU_DECODER|FBCV_RAM_Addr_A[6]~10_combout $end
$var wire 1 N! inst|FBCV_ALU_DECODER|Equal2~3_combout $end
$var wire 1 O! inst|FBCV_ALU_DECODER|Equal2~4_combout $end
$var wire 1 P! inst|PC|auto_generated|counter_comb_bita7~COUT $end
$var wire 1 Q! inst|PC|auto_generated|counter_comb_bita8~combout $end
$var wire 1 R! inst|PC|auto_generated|counter_comb_bita8~COUT $end
$var wire 1 S! inst|PC|auto_generated|counter_comb_bita9~combout $end
$var wire 1 T! inst|FBCV_ALU_DECODER|FBCV_RAM_Addr_A[7]~13 $end
$var wire 1 U! inst|FBCV_ALU_DECODER|FBCV_RAM_Addr_A[8]~15 $end
$var wire 1 V! inst|FBCV_ALU_DECODER|FBCV_RAM_Addr_A[9]~16_combout $end
$var wire 1 W! inst|FBCV_ALU_DECODER|FBCV_RAM_Addr_A[8]~14_combout $end
$var wire 1 X! inst|FBCV_ALU_DECODER|Equal2~5_combout $end
$var wire 1 Y! inst|PC|auto_generated|counter_comb_bita9~COUT $end
$var wire 1 Z! inst|PC|auto_generated|counter_comb_bita10~combout $end
$var wire 1 [! inst|PC|auto_generated|counter_comb_bita10~COUT $end
$var wire 1 \! inst|PC|auto_generated|counter_comb_bita11~combout $end
$var wire 1 ]! inst|FBCV_ALU_DECODER|FBCV_RAM_Addr_A[9]~17 $end
$var wire 1 ^! inst|FBCV_ALU_DECODER|FBCV_RAM_Addr_A[10]~19 $end
$var wire 1 _! inst|FBCV_ALU_DECODER|FBCV_RAM_Addr_A[11]~20_combout $end
$var wire 1 `! inst|FBCV_ALU_DECODER|FBCV_RAM_Addr_A[10]~18_combout $end
$var wire 1 a! inst|FBCV_ALU_DECODER|Equal2~6_combout $end
$var wire 1 b! inst|FBCV_ALU_DECODER|Equal2~7_combout $end
$var wire 1 c! inst1|inst2|inst3~0_combout $end
$var wire 1 d! inst1|inst2|inst3~q $end
$var wire 1 e! inst1|inst3|out[1]~0_combout $end
$var wire 1 f! inst1|inst3|out[1]~1_combout $end
$var wire 1 g! inst1|inst2|inst2~q $end
$var wire 1 h! inst|FBCV_ALU_DECODER|comb~0_combout $end
$var wire 1 i! inst|FBCV_ALU_DECODER|comb~1_combout $end
$var wire 1 j! inst|FBCV_ALU_DECODER|Equal3~0_combout $end
$var wire 1 k! inst|FBCV_ALU_DECODER|Equal3~1_combout $end
$var wire 1 l! inst|FBCV_ALU_DECODER|Equal3~2_combout $end
$var wire 1 m! inst|FBCV_ALU_DECODER|Equal3~3_combout $end
$var wire 1 n! inst|FBCV_ALU_DECODER|Equal4~0_combout $end
$var wire 1 o! inst|FBCV_ALU_DECODER|Equal4~1_combout $end
$var wire 1 p! inst|FBCV_ALU_DECODER|Equal4~2_combout $end
$var wire 1 q! inst|FBCV_ALU_DECODER|Equal4~3_combout $end
$var wire 1 r! inst|FBCV_ALU_DECODER|FBCV_RAM_Addr_B[0]~0_combout $end
$var wire 1 s! inst|FBCV_ALU_DECODER|FBCV_RAM_Addr_B[0]~1 $end
$var wire 1 t! inst|FBCV_ALU_DECODER|FBCV_RAM_Addr_B[1]~2_combout $end
$var wire 1 u! inst|FBCV_ALU_DECODER|FBCV_RAM_Addr_B[1]~3 $end
$var wire 1 v! inst|FBCV_ALU_DECODER|FBCV_RAM_Addr_B[2]~4_combout $end
$var wire 1 w! inst|FBCV_ALU_DECODER|FBCV_RAM_Addr_B[2]~5 $end
$var wire 1 x! inst|FBCV_ALU_DECODER|FBCV_RAM_Addr_B[3]~6_combout $end
$var wire 1 y! inst|FBCV_ALU_DECODER|FBCV_RAM_Addr_B[3]~7 $end
$var wire 1 z! inst|FBCV_ALU_DECODER|FBCV_RAM_Addr_B[4]~8_combout $end
$var wire 1 {! inst|FBCV_ALU_DECODER|FBCV_RAM_Addr_B[4]~9 $end
$var wire 1 |! inst|FBCV_ALU_DECODER|FBCV_RAM_Addr_B[5]~10_combout $end
$var wire 1 }! inst|FBCV_ALU_DECODER|FBCV_RAM_Addr_B[5]~11 $end
$var wire 1 ~! inst|FBCV_ALU_DECODER|FBCV_RAM_Addr_B[6]~12_combout $end
$var wire 1 !" inst|FBCV_ALU_DECODER|FBCV_RAM_Addr_B[6]~13 $end
$var wire 1 "" inst|FBCV_ALU_DECODER|FBCV_RAM_Addr_B[7]~14_combout $end
$var wire 1 #" inst|FBCV_ALU_DECODER|FBCV_RAM_Addr_B[7]~15 $end
$var wire 1 $" inst|FBCV_ALU_DECODER|FBCV_RAM_Addr_B[8]~16_combout $end
$var wire 1 %" inst|FBCV_ALU_DECODER|FBCV_RAM_Addr_B[8]~17 $end
$var wire 1 &" inst|FBCV_ALU_DECODER|FBCV_RAM_Addr_B[9]~18_combout $end
$var wire 1 '" inst|FBCV_ALU_DECODER|FBCV_RAM_Addr_B[9]~19 $end
$var wire 1 (" inst|FBCV_ALU_DECODER|FBCV_RAM_Addr_B[10]~20_combout $end
$var wire 1 )" inst|FBCV_ALU_DECODER|FBCV_RAM_Addr_B[10]~21 $end
$var wire 1 *" inst|FBCV_ALU_DECODER|FBCV_RAM_Addr_B[11]~22_combout $end
$var wire 1 +" inst|MUX_RS|$00000|auto_generated|result_node[15]~0_combout $end
$var wire 1 ," inst|MUX_LS|$00000|auto_generated|result_node[14]~1_combout $end
$var wire 1 -" inst|MUX_LS|$00000|auto_generated|result_node[13]~2_combout $end
$var wire 1 ." inst|MUX_LS|$00000|auto_generated|result_node[12]~3_combout $end
$var wire 1 /" inst|MUX_LS|$00000|auto_generated|result_node[11]~4_combout $end
$var wire 1 0" inst|MUX_LS|$00000|auto_generated|result_node[10]~5_combout $end
$var wire 1 1" inst|MUX_LS|$00000|auto_generated|result_node[9]~6_combout $end
$var wire 1 2" inst|MUX_LS|$00000|auto_generated|result_node[8]~7_combout $end
$var wire 1 3" inst|MUX_LS|$00000|auto_generated|result_node[7]~8_combout $end
$var wire 1 4" inst|MUX_LS|$00000|auto_generated|result_node[6]~9_combout $end
$var wire 1 5" inst|MUX_LS|$00000|auto_generated|result_node[5]~10_combout $end
$var wire 1 6" inst|MUX_LS|$00000|auto_generated|result_node[4]~11_combout $end
$var wire 1 7" inst|MUX_LS|$00000|auto_generated|result_node[3]~12_combout $end
$var wire 1 8" inst|MUX_LS|$00000|auto_generated|result_node[2]~13_combout $end
$var wire 1 9" inst|MUX_LS|$00000|auto_generated|result_node[1]~14_combout $end
$var wire 1 :" inst|ALU|auto_generated|result[0]~0_combout $end
$var wire 1 ;" inst|ALU|auto_generated|result[0]~1 $end
$var wire 1 <" inst|ALU|auto_generated|result[1]~2_combout $end
$var wire 1 =" inst|MUX_RS|$00000|auto_generated|result_node[1]~14_combout $end
$var wire 1 >" inst|ALU|auto_generated|result[1]~3 $end
$var wire 1 ?" inst|ALU|auto_generated|result[2]~4_combout $end
$var wire 1 @" inst|MUX_RS|$00000|auto_generated|result_node[2]~13_combout $end
$var wire 1 A" inst|ALU|auto_generated|result[2]~5 $end
$var wire 1 B" inst|ALU|auto_generated|result[3]~6_combout $end
$var wire 1 C" inst|MUX_RS|$00000|auto_generated|result_node[3]~12_combout $end
$var wire 1 D" inst|ALU|auto_generated|result[3]~7 $end
$var wire 1 E" inst|ALU|auto_generated|result[4]~8_combout $end
$var wire 1 F" inst|MUX_RS|$00000|auto_generated|result_node[4]~11_combout $end
$var wire 1 G" inst|ALU|auto_generated|result[4]~9 $end
$var wire 1 H" inst|ALU|auto_generated|result[5]~10_combout $end
$var wire 1 I" inst|MUX_RS|$00000|auto_generated|result_node[5]~10_combout $end
$var wire 1 J" inst|ALU|auto_generated|result[5]~11 $end
$var wire 1 K" inst|ALU|auto_generated|result[6]~12_combout $end
$var wire 1 L" inst|MUX_RS|$00000|auto_generated|result_node[6]~9_combout $end
$var wire 1 M" inst|ALU|auto_generated|result[6]~13 $end
$var wire 1 N" inst|ALU|auto_generated|result[7]~14_combout $end
$var wire 1 O" inst|MUX_RS|$00000|auto_generated|result_node[7]~8_combout $end
$var wire 1 P" inst|ALU|auto_generated|result[7]~15 $end
$var wire 1 Q" inst|ALU|auto_generated|result[8]~16_combout $end
$var wire 1 R" inst|MUX_RS|$00000|auto_generated|result_node[8]~7_combout $end
$var wire 1 S" inst|ALU|auto_generated|result[8]~17 $end
$var wire 1 T" inst|ALU|auto_generated|result[9]~18_combout $end
$var wire 1 U" inst|MUX_RS|$00000|auto_generated|result_node[9]~6_combout $end
$var wire 1 V" inst|ALU|auto_generated|result[9]~19 $end
$var wire 1 W" inst|ALU|auto_generated|result[10]~20_combout $end
$var wire 1 X" inst|MUX_RS|$00000|auto_generated|result_node[10]~5_combout $end
$var wire 1 Y" inst|ALU|auto_generated|result[10]~21 $end
$var wire 1 Z" inst|ALU|auto_generated|result[11]~22_combout $end
$var wire 1 [" inst|MUX_RS|$00000|auto_generated|result_node[11]~4_combout $end
$var wire 1 \" inst|ALU|auto_generated|result[11]~23 $end
$var wire 1 ]" inst|ALU|auto_generated|result[12]~24_combout $end
$var wire 1 ^" inst|MUX_RS|$00000|auto_generated|result_node[12]~3_combout $end
$var wire 1 _" inst|ALU|auto_generated|result[12]~25 $end
$var wire 1 `" inst|ALU|auto_generated|result[13]~26_combout $end
$var wire 1 a" inst|MUX_RS|$00000|auto_generated|result_node[13]~2_combout $end
$var wire 1 b" inst|ALU|auto_generated|result[13]~27 $end
$var wire 1 c" inst|ALU|auto_generated|result[14]~28_combout $end
$var wire 1 d" inst|MUX_RS|$00000|auto_generated|result_node[14]~1_combout $end
$var wire 1 e" inst|ALU|auto_generated|result[14]~29 $end
$var wire 1 f" inst|ALU|auto_generated|result[15]~30_combout $end
$var wire 1 g" inst|MUX_LS|$00000|auto_generated|result_node[15]~0_combout $end
$var wire 1 h" inst|FBCV_ALU_DECODER|FBCV_Reg[15]~0_combout $end
$var wire 1 i" inst|FBCV_ALU_DECODER|FBCV_Reg[15]~1_combout $end
$var wire 1 j" inst|FBCV_ALU_DECODER|FBCV_Reg[14]~2_combout $end
$var wire 1 k" inst|FBCV_ALU_DECODER|FBCV_Reg[13]~3_combout $end
$var wire 1 l" inst|FBCV_ALU_DECODER|FBCV_Reg[12]~4_combout $end
$var wire 1 m" inst|FBCV_ALU_DECODER|FBCV_Reg[11]~5_combout $end
$var wire 1 n" inst|FBCV_ALU_DECODER|FBCV_Reg[10]~6_combout $end
$var wire 1 o" inst|FBCV_ALU_DECODER|FBCV_Reg[9]~7_combout $end
$var wire 1 p" inst|FBCV_ALU_DECODER|FBCV_Reg[8]~8_combout $end
$var wire 1 q" inst|FBCV_ALU_DECODER|FBCV_Reg[7]~9_combout $end
$var wire 1 r" inst|FBCV_ALU_DECODER|FBCV_Reg[6]~10_combout $end
$var wire 1 s" inst|FBCV_ALU_DECODER|FBCV_Reg[5]~11_combout $end
$var wire 1 t" inst|FBCV_ALU_DECODER|FBCV_Reg[4]~12_combout $end
$var wire 1 u" inst|FBCV_ALU_DECODER|FBCV_Reg[3]~13_combout $end
$var wire 1 v" inst|FBCV_ALU_DECODER|FBCV_Reg[2]~14_combout $end
$var wire 1 w" inst|FBCV_ALU_DECODER|FBCV_Reg[1]~15_combout $end
$var wire 1 x" inst|FBCV_ALU_DECODER|FBCV_Reg[0]~16_combout $end
$var wire 1 y" inst|MUX_LS|$00000|auto_generated|result_node [15] $end
$var wire 1 z" inst|MUX_LS|$00000|auto_generated|result_node [14] $end
$var wire 1 {" inst|MUX_LS|$00000|auto_generated|result_node [13] $end
$var wire 1 |" inst|MUX_LS|$00000|auto_generated|result_node [12] $end
$var wire 1 }" inst|MUX_LS|$00000|auto_generated|result_node [11] $end
$var wire 1 ~" inst|MUX_LS|$00000|auto_generated|result_node [10] $end
$var wire 1 !# inst|MUX_LS|$00000|auto_generated|result_node [9] $end
$var wire 1 "# inst|MUX_LS|$00000|auto_generated|result_node [8] $end
$var wire 1 ## inst|MUX_LS|$00000|auto_generated|result_node [7] $end
$var wire 1 $# inst|MUX_LS|$00000|auto_generated|result_node [6] $end
$var wire 1 %# inst|MUX_LS|$00000|auto_generated|result_node [5] $end
$var wire 1 &# inst|MUX_LS|$00000|auto_generated|result_node [4] $end
$var wire 1 '# inst|MUX_LS|$00000|auto_generated|result_node [3] $end
$var wire 1 (# inst|MUX_LS|$00000|auto_generated|result_node [2] $end
$var wire 1 )# inst|MUX_LS|$00000|auto_generated|result_node [1] $end
$var wire 1 *# inst|MUX_LS|$00000|auto_generated|result_node [0] $end
$var wire 1 +# inst|PC|auto_generated|counter_reg_bit [11] $end
$var wire 1 ,# inst|PC|auto_generated|counter_reg_bit [10] $end
$var wire 1 -# inst|PC|auto_generated|counter_reg_bit [9] $end
$var wire 1 .# inst|PC|auto_generated|counter_reg_bit [8] $end
$var wire 1 /# inst|PC|auto_generated|counter_reg_bit [7] $end
$var wire 1 0# inst|PC|auto_generated|counter_reg_bit [6] $end
$var wire 1 1# inst|PC|auto_generated|counter_reg_bit [5] $end
$var wire 1 2# inst|PC|auto_generated|counter_reg_bit [4] $end
$var wire 1 3# inst|PC|auto_generated|counter_reg_bit [3] $end
$var wire 1 4# inst|PC|auto_generated|counter_reg_bit [2] $end
$var wire 1 5# inst|PC|auto_generated|counter_reg_bit [1] $end
$var wire 1 6# inst|PC|auto_generated|counter_reg_bit [0] $end
$var wire 1 7# inst|PREV_SUM|dffs [15] $end
$var wire 1 8# inst|PREV_SUM|dffs [14] $end
$var wire 1 9# inst|PREV_SUM|dffs [13] $end
$var wire 1 :# inst|PREV_SUM|dffs [12] $end
$var wire 1 ;# inst|PREV_SUM|dffs [11] $end
$var wire 1 <# inst|PREV_SUM|dffs [10] $end
$var wire 1 =# inst|PREV_SUM|dffs [9] $end
$var wire 1 ># inst|PREV_SUM|dffs [8] $end
$var wire 1 ?# inst|PREV_SUM|dffs [7] $end
$var wire 1 @# inst|PREV_SUM|dffs [6] $end
$var wire 1 A# inst|PREV_SUM|dffs [5] $end
$var wire 1 B# inst|PREV_SUM|dffs [4] $end
$var wire 1 C# inst|PREV_SUM|dffs [3] $end
$var wire 1 D# inst|PREV_SUM|dffs [2] $end
$var wire 1 E# inst|PREV_SUM|dffs [1] $end
$var wire 1 F# inst|PREV_SUM|dffs [0] $end
$var wire 1 G# inst|inst|altsyncram_component|auto_generated|q_b [15] $end
$var wire 1 H# inst|inst|altsyncram_component|auto_generated|q_b [14] $end
$var wire 1 I# inst|inst|altsyncram_component|auto_generated|q_b [13] $end
$var wire 1 J# inst|inst|altsyncram_component|auto_generated|q_b [12] $end
$var wire 1 K# inst|inst|altsyncram_component|auto_generated|q_b [11] $end
$var wire 1 L# inst|inst|altsyncram_component|auto_generated|q_b [10] $end
$var wire 1 M# inst|inst|altsyncram_component|auto_generated|q_b [9] $end
$var wire 1 N# inst|inst|altsyncram_component|auto_generated|q_b [8] $end
$var wire 1 O# inst|inst|altsyncram_component|auto_generated|q_b [7] $end
$var wire 1 P# inst|inst|altsyncram_component|auto_generated|q_b [6] $end
$var wire 1 Q# inst|inst|altsyncram_component|auto_generated|q_b [5] $end
$var wire 1 R# inst|inst|altsyncram_component|auto_generated|q_b [4] $end
$var wire 1 S# inst|inst|altsyncram_component|auto_generated|q_b [3] $end
$var wire 1 T# inst|inst|altsyncram_component|auto_generated|q_b [2] $end
$var wire 1 U# inst|inst|altsyncram_component|auto_generated|q_b [1] $end
$var wire 1 V# inst|inst|altsyncram_component|auto_generated|q_b [0] $end
$var wire 1 W# inst|MUX_RS|$00000|auto_generated|result_node [15] $end
$var wire 1 X# inst|MUX_RS|$00000|auto_generated|result_node [14] $end
$var wire 1 Y# inst|MUX_RS|$00000|auto_generated|result_node [13] $end
$var wire 1 Z# inst|MUX_RS|$00000|auto_generated|result_node [12] $end
$var wire 1 [# inst|MUX_RS|$00000|auto_generated|result_node [11] $end
$var wire 1 \# inst|MUX_RS|$00000|auto_generated|result_node [10] $end
$var wire 1 ]# inst|MUX_RS|$00000|auto_generated|result_node [9] $end
$var wire 1 ^# inst|MUX_RS|$00000|auto_generated|result_node [8] $end
$var wire 1 _# inst|MUX_RS|$00000|auto_generated|result_node [7] $end
$var wire 1 `# inst|MUX_RS|$00000|auto_generated|result_node [6] $end
$var wire 1 a# inst|MUX_RS|$00000|auto_generated|result_node [5] $end
$var wire 1 b# inst|MUX_RS|$00000|auto_generated|result_node [4] $end
$var wire 1 c# inst|MUX_RS|$00000|auto_generated|result_node [3] $end
$var wire 1 d# inst|MUX_RS|$00000|auto_generated|result_node [2] $end
$var wire 1 e# inst|MUX_RS|$00000|auto_generated|result_node [1] $end
$var wire 1 f# inst|MUX_RS|$00000|auto_generated|result_node [0] $end
$var wire 1 g# inst|inst|altsyncram_component|auto_generated|ram_block1a15_PORTBDATAOUT_bus [0] $end
$var wire 1 h# inst|inst|altsyncram_component|auto_generated|ram_block1a14_PORTBDATAOUT_bus [0] $end
$var wire 1 i# inst|inst|altsyncram_component|auto_generated|ram_block1a13_PORTBDATAOUT_bus [0] $end
$var wire 1 j# inst|inst|altsyncram_component|auto_generated|ram_block1a12_PORTBDATAOUT_bus [0] $end
$var wire 1 k# inst|inst|altsyncram_component|auto_generated|ram_block1a11_PORTBDATAOUT_bus [0] $end
$var wire 1 l# inst|inst|altsyncram_component|auto_generated|ram_block1a10_PORTBDATAOUT_bus [0] $end
$var wire 1 m# inst|inst|altsyncram_component|auto_generated|ram_block1a9_PORTBDATAOUT_bus [0] $end
$var wire 1 n# inst|inst|altsyncram_component|auto_generated|ram_block1a8_PORTBDATAOUT_bus [0] $end
$var wire 1 o# inst|inst|altsyncram_component|auto_generated|ram_block1a7_PORTBDATAOUT_bus [0] $end
$var wire 1 p# inst|inst|altsyncram_component|auto_generated|ram_block1a6_PORTBDATAOUT_bus [0] $end
$var wire 1 q# inst|inst|altsyncram_component|auto_generated|ram_block1a5_PORTBDATAOUT_bus [0] $end
$var wire 1 r# inst|inst|altsyncram_component|auto_generated|ram_block1a4_PORTBDATAOUT_bus [0] $end
$var wire 1 s# inst|inst|altsyncram_component|auto_generated|ram_block1a3_PORTBDATAOUT_bus [0] $end
$var wire 1 t# inst|inst|altsyncram_component|auto_generated|ram_block1a2_PORTBDATAOUT_bus [0] $end
$var wire 1 u# inst|inst|altsyncram_component|auto_generated|ram_block1a1_PORTBDATAOUT_bus [0] $end
$var wire 1 v# inst|inst|altsyncram_component|auto_generated|ram_block1a0_PORTBDATAOUT_bus [0] $end
$upscope $end
$upscope $end
$enddefinitions $end
#0
$dumpvars
0!
b101 "
0#
0$
0%
1&
16
05
04
03
02
01
00
0/
0.
0-
0,
0+
0*
0)
0(
0'
17
1G
0F
0E
0D
0C
0B
0A
0@
0?
0>
0=
0<
0;
0:
09
08
1H
0T
0S
0R
0Q
0P
0O
0N
0M
0L
0K
0J
0I
0d
0c
0b
0a
0`
0_
0^
0]
0\
0[
0Z
0Y
0X
0W
0V
0U
0t
1s
0r
0q
0p
0o
0n
0m
0l
0k
0j
0i
0h
0g
0f
0e
0u
1v
xw
1x
1y
1z
0{
0|
0}
0~
0!!
1"!
0#!
0$!
0%!
0&!
1'!
0(!
1)!
0*!
0+!
0,!
1-!
1.!
0/!
00!
01!
12!
03!
14!
05!
06!
07!
08!
19!
0:!
0;!
0<!
1=!
0>!
0?!
0@!
0A!
1B!
0C!
0D!
1E!
1F!
0G!
0H!
0I!
0J!
1K!
0L!
0M!
1N!
0O!
1P!
0Q!
0R!
0S!
0T!
1U!
0V!
0W!
1X!
1Y!
0Z!
0[!
0\!
0]!
1^!
0_!
0`!
0a!
1b!
1c!
0d!
0e!
0f!
0g!
0h!
0i!
1j!
1k!
1l!
1m!
1n!
1o!
1p!
1q!
1r!
0s!
0t!
1u!
0v!
0w!
0x!
1y!
0z!
0{!
0|!
1}!
0~!
0!"
0""
1#"
0$"
0%"
0&"
1'"
0("
0)"
0*"
0+"
0,"
0-"
0."
0/"
00"
01"
02"
03"
04"
05"
06"
07"
08"
09"
0:"
1;"
1<"
0="
1>"
0?"
0@"
0A"
0B"
0C"
1D"
0E"
0F"
0G"
0H"
0I"
1J"
0K"
0L"
0M"
0N"
0O"
1P"
0Q"
0R"
0S"
0T"
0U"
1V"
0W"
0X"
0Y"
0Z"
0["
1\"
0]"
0^"
0_"
0`"
0a"
1b"
0c"
0d"
0e"
0f"
0g"
1h"
0i"
0j"
0k"
0l"
0m"
0n"
0o"
0p"
0q"
0r"
0s"
0t"
0u"
0v"
0w"
0x"
1*#
z)#
z(#
z'#
z&#
z%#
z$#
z##
z"#
z!#
z~"
z}"
z|"
z{"
zz"
zy"
06#
05#
04#
03#
02#
01#
00#
0/#
0.#
0-#
0,#
0+#
0F#
0E#
0D#
0C#
0B#
0A#
0@#
0?#
0>#
0=#
0<#
0;#
0:#
09#
08#
07#
0V#
0U#
0T#
0S#
0R#
0Q#
0P#
0O#
0N#
0M#
0L#
0K#
0J#
0I#
0H#
0G#
1f#
ze#
zd#
zc#
zb#
za#
z`#
z_#
z^#
z]#
z\#
z[#
zZ#
zY#
zX#
zW#
0g#
0h#
0i#
0j#
0k#
0l#
0m#
0n#
0o#
0p#
0q#
0r#
0s#
0t#
0u#
0v#
$end
#5000
1!
1{
1E#
1d!
1#
1h!
1e!
0&
0c!
1f!
#10000
0!
0{
#15000
1!
1{
1g!
0d!
16#
1T
0#
1$
1s!
0r!
0j!
10!
0.!
1t!
0*#
19"
0m!
11!
07
15
06
0;"
0>"
1:"
0<"
0s
1t
1>"
1<"
1?"
1r
1s
0?"
0r
#20000
0!
0{
#25000
1!
1{
1F#
15#
06#
0T
1S
0u!
0t!
0p!
18!
02!
04!
0s!
1r!
1j!
00!
1*#
01!
1.!
16
1v!
1;!
0j!
1u!
1t!
14!
1;"
0f#
0q!
15!
09"
1m!
11!
0:"
0t
17
05
0H
0G
1<!
0v!
0;"
19"
0m!
05!
1:"
1t
07
15
#25001
1u#
1U#
1="
1F
0>"
0<"
0s
1?"
1r
#30000
0!
0{
